Analisis Data Ujian Nasional SMP • bandungjuara
…
nilai_kecamatan <- 
  un_smp %>% 
  group_by(nama_kecamatan, tahun) %>% 
  summarise_at(
    vars(nilai_rerata_bahasa_indonesia:nilai_rerata_ipa),
    ~mean(.x)
  ) %>% 
  ungroup()
nilai_kecamatan
#> # A tibble: 78 x 6
#>    nama_kecamatan tahun nilai_rerata_ba… nilai_rerata_ba… nilai_rerata_ma…
#>    <chr>          <dbl>            <dbl>            <dbl>            <dbl>
#>  1 Andir           2015             76               61.8             47.3
#>  2 Andir           2016             77.4             59.7             40.8
#>  3 Andir           2017             71.8             50.3             43.5
#>  4 Antapani        2015             77.4             66.8             51.8
#>  5 Antapani        2016             78.8             68.5             47.2
#>  6 Antapani        2017             72.5             53.8             50.1
#>  7 Arcamanik       2015             81.5             75.5             60.9
#>  8 Arcamanik       2016             81.4             69.7             50.7
#>  9 Arcamanik       2017             76.6             58.6             50.5
#> 10 Astanaanyar     2015             81.2             72.2             62.6
#> # … with 68 more rows, and 1 more variable: nilai_rerata_ipa <dbl>
…
