Impor dataset — impor • bandungjuara
…
    Dataset bersumber dari Open Data Kota Bandung http://data.bandung.go.id.

    Value

    dataframe atau list berisi dataframe apabila dataset yang hendak diimpor jumlahnya lebih dari satu.

    Examples

library(bandungjuara)

kebakaran <- cari(kata_kunci = "kebakaran")
#> Berhasil menemukan 23 dataset dengan dengan kata kunci: kebakaran
kebakaran
#> # A tibble: 23 x 5
#>    nama             deskripsi            url             dibuat     diperbaharui
#>    <chr>            <chr>                <chr>           <date>     <date>      
#>  1 Data Kebakaran … Data ini berisi kol… http://data.ba… 2019-01-10 2019-01-10  
#>  2 Data Kebakaran … Data mengenai benca… http://data.ba… 2017-07-25 2018-08-29  
#>  3 Data Serapan An… Data ini berisi kol… http://data.ba… 2018-04-20 2018-04-20  
#>  4 Data Serapan An… Data ini berisi kol… http://data.ba… 2018-04-20 2018-04-20  
#>  5 Data Serapan An… Data ini berisi kol… http://data.ba… 2018-04-20 2018-04-20  
#>  6 Data Serapan An… Data ini berisi kol… http://data.ba… 2018-04-20 2018-04-20  
#>  7 Data Serapan An… Data ini berisi kol… http://data.ba… 2018-04-13 2018-04-13  
#>  8 Data Kebakaran … Data ini berisi kol… http://data.ba… 2018-01-15 2018-01-15  
#>  9 Data Kebakaran … Data mengenai benca… http://data.ba… 2017-07-25 2018-01-04  
#> 10 Data Rekrutmen … Dataset tentang Dat… https://git.ba… 2017-07-25 NA          
#> # … with 13 more rows
…
#>  5 Dinas … Program… Kegiatan …   5.57e8    5.33e8             95.6  2017 -      
#>  6 Dinas … Program… Kegiatan …   4.07e8    4.00e8             98.3  2017 -      
#>  7 Dinas … Program… Kegiatan …   1.65e8    1.54e8             93.0  2017 -      
#>  8 Dinas … Program… Kegiatan …   1.59e8    1.56e8             98    2017 -      
#>  9 Dinas … Program… Kegiatan …   1.58e8    1.58e8            100.0  2017 -      
#> 10 Dinas … Program… Kegiatan …   1.57e8    1.56e8             99.9  2017 -      
#> 11 Dinas … Program… Kegiatan …   1.47e8    1.47e8            100.0  2017 -      
#> 12 Dinas … Program… Kegiatan …   1.27e8    1.27e8             99.6  2017 -      
#> 13 Dinas … Program… Kegiatan …   1.27e8    1.26e8             99.3  2017 -      
#> 14 Dinas … Program… Kegiatan …   1.09e8    1.09e8            100    2017 -      
#> 15 Dinas … Program… Kegiatan …   7.00e7    6.96e7             99.5  2017 -      
#> 16 Dinas … Program… Kegiatan …   6.00e7    5.78e7             96.2  2017 -      
#> 
#> $`Data Kebakaran Kota Bandung Tahun 2017`
#> # A tibble: 195 x 21
#>    hari  tanggal waktu_awal waktu_akhir lokasi_kejadian kelurahan kecamatan
#>    <chr> <chr>   <chr>      <chr>       <chr>           <chr>     <chr>    
#>  1 Ming… 01-Jan… 11.36      12.08       Jl.Sekelimus 4… Batunung… Bandung …
#>  2 Ming… 01-Jan… 0.40       3.00        Jl.Cigondewah … Cigondew… Bandung …
#>  3 Ming… 01-Jan… 16.30      17.03       Jl.Setra Ria N… Sukasari  Sukasari 
#>  4 Ming… 01-Jan… 21.00      21.02       Jl.Paledang Rt… Campaka   Andir    
#>  5 Sela… 03-Jan… 5.45       7.03        Jl.Moch. Toha … Karasak   Astana A…
#>  6 Sela… 03-Jan… 18.02      19.45       Jl.Tanjung Sar… Antapani… Antapani 
#>  7 Rabu  04-Jan… 21.15      21.02       Jl.Layang Paso… Taman sa… Bandung …
#>  8 Jumat 06-Jan… 6.04       7.03        Jl.Buah Batu (… Mengger   Bandung …
#>  9 Senin 09-Jan… 22.03      5.03        Jl. Jend.Sudir… Ciroyom   Andir    
#> 10 Sela… 10-Jan… 12.45      14.04       Jl. Jend.Sudir… Ciroyom   Andir    
#> # … with 185 more rows, and 14 more variables: benda_yang_terbakar <chr>,
#> #   bangunan_yang_terselamatkan <chr>, nama_pemilik <chr>,
#> #   penyebab_kebakaran <chr>, korban_meninggal_dunia <chr>, korban_luka <chr>,
#> #   mobil_pancar <chr>, mobil_rescue <chr>,
#> #   mobil_unit_lain_yang_bertugas_selain_pancar_dan_rescue <chr>, apar <chr>,
#> #   sumber_air_pdam_m3 <chr>, sumber_air_lainnya <chr>,
#> #   taksiran_kerugian <chr>, luas_areal_yang_terbakar_m2 <chr>
#> 
#> $`Data Kebakaran Kota Bandung Tahun 2016`
#> # A tibble: 106 x 16
#>    tanggal waktu_awal waktu_akhir lokasi_kebakaran kelurahan kecamatan
#>    <chr>   <chr>      <chr>       <chr>            <chr>     <chr>    
#>  1 02/01/… 14.20      15.35       JL. INDUSTRI RT… Arjuna    Cicendo  
#>  2 04/01/… 7.40       8.15        PERUM SARIJADI … Sukawarna Sukajadi 
#>  3 07/01/… 19.15      19.50       JL. KEBON JAYAN… Kebon Ja… Kiaracon…
#>  4 08/01/… 19.55      22.45       JL. DAGO         Ciharala… Cimenyan 
#>  5 12/01/… 1.40       1.55        JL. FLORES NO.08 Citarum   Bandung …
#>  6 18/01/… 13.35      4.30        PADASUKA NO.118… Pasir La… Cibeunyi…
#>  7 30/01/… 9.45       10.30       JL. CIBODAS RAY… Antapani… Antapani 
#>  8 30/01/… 3.25       5.15        JL. SEKEMIRUNG … Cigadung  Cibeunyi…
#>  9 30/01/… 15.30      16.00       JL. RY PASTEUR … Sukagalih Sukajadi 
#> 10 31/01/… 9.20       10.55       BOJONG RAYA HOL… Caringin  Bandung …
#> # … with 96 more rows, and 10 more variables: benda_yang_terbakar <chr>,
#> #   bangunan_yang_terselamatkan <chr>, penyebab_kebakaran <chr>,
#> #   korban_mati <chr>, korban_luka <chr>, sumber_air_pdam_m <chr>,
#> #   taksiran_kerugian <dbl>, luas_areal_yang_terbakar <chr>,
#> #   mobil_pancar <dbl>, mobil_rescue <chr>
…
#>  4 April 843        100          100          -                370             
#>  5 Mei   436        -            -            500              75              
#>  6 Juni  358        1            -            -                150             
#>  7 Juli  -          -            470          -                -               
#>  8 Agus… 118        -            -            401              160             
#>  9 Sept… 196        300          -            100              150             
#> 10 Okto… 662        -            1            200              200             
#> 11 Nove… 1          -            -            500              340             
#> 12 Dese… 1          -            -            NA               50              
#> # … with 7 more variables: instansi_bumn <chr>, karyawan_hotel <chr>,
#> #   karyawan_rumah_sakit <chr>, pegawai_swasta <chr>, tni_polri <chr>,
#> #   kelurahan_kecamatan <chr>, ormas <chr>
#> 
#> $`Data Unit Kendaraan Pemadam Kebakaran`
#> # A tibble: 40 x 6
#>    tahun anggaran merk_mesin utility          merk_pompa  kondisi
#>    <dbl> <chr>    <chr>      <chr>            <chr>       <chr>  
#>  1  2001 APBD II  ISUZU      Mobil unit pompa NIHON KIKAI Baik   
#>  2  2001 APBD II  ISUZU      Mobil unit pompa NIHON KIKAI Baik   
#>  3  1983 APBD II  ISUZU      Mobil unit pompa NIHON KIKAI Baik   
#>  4  1997 APBD II  HINO       Mobil unit pompa WATEROUS    Baik   
#>  5  1997 APBD II  HINO       Mobil unit pompa WATEROUS    Baik   
#>  6  1997 DEPDAGRI MITSUBISHI Mobil unit pompa MORITA      Baik   
#>  7  1995 APBD II  HINO       Mobil unit pompa WATEROUS    Baik   
#>  8  1997 DEPDAGRI MITSUBISHI Mobil unit pompa MORITA      Baik   
#>  9  2000 APBD II  MITSUBISHI Mobil unit pompa MORITA      Baik   
#> 10  2003 BANGUB   ISUZU      Mobil unit pompa TOHATSU     Baik   
#> # … with 30 more rows
…
